<?xml version="1.0" encoding="UTF-8" standalone="no"?>
<!-- Created with Inkscape (http://www.inkscape.org/) -->

<svg
   xmlns:dc="http://purl.org/dc/elements/1.1/"
   xmlns:cc="http://creativecommons.org/ns#"
   xmlns:rdf="http://www.w3.org/1999/02/22-rdf-syntax-ns#"
   xmlns:svg="http://www.w3.org/2000/svg"
   xmlns="http://www.w3.org/2000/svg"
   xmlns:xlink="http://www.w3.org/1999/xlink"
   xmlns:sodipodi="http://sodipodi.sourceforge.net/DTD/sodipodi-0.dtd"
   xmlns:inkscape="http://www.inkscape.org/namespaces/inkscape"
   width="210mm"
   height="297mm"
   viewBox="0 0 210 297"
   version="1.1"
   id="svg8"
   inkscape:export-filename="Z:\Bureau\PROJET\logoPROJET.png"
   inkscape:export-xdpi="96"
   inkscape:export-ydpi="96"
   inkscape:version="0.92.2 (5c3e80d, 2017-08-06)"
   sodipodi:docname="drawing.svg">
  <defs
     id="defs2">
    <filter
       inkscape:collect="always"
       style="color-interpolation-filters:sRGB"
       id="filter1386"
       x="-0.4704"
       width="1.9408"
       y="-0.4704"
       height="1.9408">
      <feGaussianBlur
         inkscape:collect="always"
         stdDeviation="4.4857457"
         id="feGaussianBlur1388" />
    </filter>
  </defs>
  <sodipodi:namedview
     id="base"
     pagecolor="#ffffff"
     bordercolor="#666666"
     borderopacity="1.0"
     inkscape:pageopacity="0.0"
     inkscape:pageshadow="2"
     inkscape:zoom="1.8205853"
     inkscape:cx="-14.375266"
     inkscape:cy="999.28405"
     inkscape:document-units="mm"
     inkscape:current-layer="layer1"
     showgrid="false"
     showguides="true"
     inkscape:guide-bbox="true"
     inkscape:window-width="1600"
     inkscape:window-height="838"
     inkscape:window-x="-8"
     inkscape:window-y="-8"
     inkscape:window-maximized="1" />
  <metadata
     id="metadata5">
    <rdf:RDF>
      <cc:Work
         rdf:about="">
        <dc:format>image/svg+xml</dc:format>
        <dc:type
           rdf:resource="http://purl.org/dc/dcmitype/StillImage" />
        <dc:title />
      </cc:Work>
    </rdf:RDF>
  </metadata>
  <g
     inkscape:label="Layer 1"
     inkscape:groupmode="layer"
     id="layer1">
    <ellipse
       style="fill:#55ddff;fill-opacity:1;stroke:#000000;stroke-width:1.40308785;stroke-miterlimit:4;stroke-dasharray:none;stroke-dashoffset:0;stroke-opacity:1"
       id="path819"
       cx="39.301704"
       cy="31.199699"
       r="16.821365" />
    <path
       style="fill:#a05a2c;fill-opacity:1;stroke:#000000;stroke-width:0;stroke-miterlimit:4;stroke-dasharray:none;stroke-dashoffset:0;stroke-opacity:1"
       id="path819-1"
       sodipodi:type="arc"
       sodipodi:cx="39.286453"
       sodipodi:cy="31.217014"
       sodipodi:rx="16.188986"
       sodipodi:ry="16.188986"
       sodipodi:start="0.74576634"
       sodipodi:end="2.3954674"
       d="M 51.178366,42.201807 A 16.188986,16.188986 0 0 1 39.289358,47.406 16.188986,16.188986 0 0 1 27.398484,42.206074"
       sodipodi:open="true" />
    <g
       id="g1723"
       transform="matrix(0.59526715,0,0,0.59526715,-19.094505,-16.45257)">
      <path
         sodipodi:nodetypes="ccc"
         inkscape:connector-curvature="0"
         id="path860"
         d="m 97.099018,101.67943 c 1.517738,-4.876735 3.851692,-9.039279 4.104102,-15.02318 0.0524,-8.772499 -1.17932,-11.124933 -2.513538,-12.964583"
         style="fill:none;stroke:#00ca00;stroke-width:3.46499991;stroke-linecap:butt;stroke-linejoin:miter;stroke-miterlimit:4;stroke-dasharray:none;stroke-opacity:1" />
      <ellipse
         transform="matrix(0.99991272,-0.01321161,0.01046539,0.99994524,0,0)"
         ry="0.50703979"
         rx="1.0794095"
         cy="103.06692"
         cx="96.005013"
         id="path862"
         style="fill:#00ff00;fill-opacity:1;stroke:#00ca00;stroke-width:1.53700185;stroke-miterlimit:4;stroke-dasharray:none;stroke-dashoffset:0;stroke-opacity:1" />
      <path
         inkscape:connector-curvature="0"
         id="path878"
         d="m 97.929936,91.020008 c -0.315904,-0.04754 -0.613701,-0.150072 -1.005427,-0.346171 -0.344842,-0.172627 -0.598326,-0.335351 -1.938062,-1.244142 -0.309232,-0.209762 -0.67386,-0.44582 -0.810287,-0.524573 -0.136424,-0.07876 -0.292695,-0.183018 -0.347265,-0.231696 -0.291524,-0.26004 -0.801847,-0.611915 -2.075844,-1.431322 -1.389952,-0.893979 -1.937862,-1.30497 -2.541262,-1.906212 -0.563103,-0.561083 -0.89221,-1.038706 -1.104562,-1.603001 l -0.08596,-0.228415 0.406464,0.02185 c 0.518464,0.02788 1.172265,0.103362 1.770742,0.204441 1.618009,0.27327 2.976084,0.727078 4.932624,1.648272 0.562997,0.265073 0.753386,0.374415 1.157552,0.664792 0.63649,0.45729 1.07886,0.830477 1.461236,1.232715 0.897996,0.944642 1.397193,2.039059 1.475904,3.235704 l 0.01974,0.300167 -0.194778,0.07056 c -0.393536,0.142547 -0.774592,0.189135 -1.120823,0.137031 z"
         style="fill:#008000;fill-opacity:1;stroke:#00ca00;stroke-width:0.020625;stroke-miterlimit:4;stroke-dasharray:none;stroke-dashoffset:0;stroke-opacity:1" />
      <g
         transform="matrix(0.69845467,0,0,0.69845467,48.954118,-51.399218)"
         id="g1666">
        <path
           style="opacity:1;fill:#f9f9f9;fill-opacity:1;stroke:none;stroke-width:0.02916816;stroke-miterlimit:4;stroke-dasharray:none;stroke-dashoffset:0;stroke-opacity:1"
           d="m 71.025827,173.10338 c -0.05113,-0.18656 -0.187192,-1.05584 -0.302427,-1.9317 -0.115227,-0.87586 -0.288253,-2.19105 -0.384487,-2.92265 -0.413846,-3.14606 -0.56061,-5.60118 -0.455628,-7.62209 0.03299,-0.63501 0.40737,-1.98933 0.654086,-2.36613 0.211197,-0.32256 0.576763,-0.63784 0.895534,-0.77235 0.219962,-0.0928 0.248437,-0.0915 0.46561,0.0207 0.869974,0.44952 1.139735,0.8746 1.446945,2.2801 0.168584,0.7713 0.206839,2.45828 0.0997,4.39696 -0.0552,0.99885 -0.199627,2.54746 -0.454907,4.87764 -0.128783,1.1755 -0.267804,2.48963 -0.308937,2.92029 -0.07653,0.80114 -0.219222,1.38861 -0.407962,1.67957 -0.435395,0.67119 -0.97681,0.42803 -1.247524,-0.5603 z"
           id="path1394"
           inkscape:connector-curvature="0" />
        <path
           style="opacity:1;fill:#f9f9f9;fill-opacity:1;stroke:none;stroke-width:0.02916816;stroke-miterlimit:4;stroke-dasharray:none;stroke-dashoffset:0;stroke-opacity:1"
           d="m 72.317106,172.94313 c 0.0088,-0.19324 0.146824,-1.06222 0.306724,-1.93103 0.159909,-0.86881 0.400025,-2.17342 0.53361,-2.89912 0.574427,-3.12075 1.190342,-5.50188 1.912157,-7.39241 0.226811,-0.59404 0.99981,-1.76741 1.35051,-2.05 0.300215,-0.2419 0.745065,-0.42939 1.089761,-0.45927 0.237802,-0.0211 0.264543,-0.0106 0.436644,0.16299 0.689414,0.69543 0.815266,1.1829 0.675028,2.61473 -0.07696,0.78575 -0.559727,2.40263 -1.258289,4.21426 -0.359914,0.93337 -0.973911,2.36238 -1.933908,4.50092 -0.484288,1.07882 -1.020981,2.28639 -1.192652,2.68349 -0.319365,0.7387 -0.635923,1.25374 -0.905045,1.4725 -0.620821,0.50463 -1.061127,0.10669 -1.014549,-0.91702 z"
           id="path1394-7"
           inkscape:connector-curvature="0" />
        <path
           style="opacity:1;fill:#f9f9f9;fill-opacity:1;stroke:none;stroke-width:0.02916816;stroke-miterlimit:4;stroke-dasharray:none;stroke-dashoffset:0;stroke-opacity:1"
           d="m 74.796287,174.15736 c 0.125275,-0.14736 0.766506,-0.74987 1.424931,-1.33884 0.658429,-0.58896 1.647127,-1.47335 2.197116,-1.9653 2.365083,-2.11549 4.310079,-3.62087 6.038382,-4.67352 0.543069,-0.33076 1.872702,-0.78509 2.323003,-0.79376 0.38548,-0.007 0.851977,0.11677 1.142791,0.30421 0.200656,0.12935 0.215635,0.1536 0.245404,0.39623 0.119208,0.97196 -0.07979,1.43442 -1.067422,2.48054 -0.54199,0.57408 -1.913739,1.55676 -3.575339,2.56128 -0.856093,0.51755 -2.216553,1.27133 -4.285026,2.37421 -1.043476,0.55636 -2.207224,1.18242 -2.586105,1.39125 -0.704827,0.38846 -1.27048,0.60182 -1.617185,0.61 -0.799809,0.0193 -0.904227,-0.56544 -0.240569,-1.34624 z"
           id="path1394-2"
           inkscape:connector-curvature="0" />
        <path
           style="opacity:1;fill:#f9f9f9;fill-opacity:1;stroke:none;stroke-width:0.02916816;stroke-miterlimit:4;stroke-dasharray:none;stroke-dashoffset:0;stroke-opacity:1"
           d="m 75.578818,175.04881 c 0.169363,-0.0934 0.982429,-0.42972 1.806788,-0.74728 0.824361,-0.31755 2.06222,-0.79438 2.750807,-1.05961 2.961091,-1.14057 5.313211,-1.85938 7.302323,-2.23158 0.62503,-0.1169 2.029374,-0.0709 2.453551,0.0806 0.363114,0.1296 0.755376,0.41097 0.960936,0.68928 0.141822,0.19204 0.147247,0.22002 0.08915,0.45746 -0.23281,0.95117 -0.582714,1.31315 -1.876873,1.94161 -0.710199,0.34488 -2.341094,0.77795 -4.250779,1.12875 -0.98392,0.18071 -2.52317,0.40376 -4.848185,0.70243 -1.172899,0.15064 -2.482955,0.32391 -2.91124,0.385 -0.796718,0.11368 -1.401271,0.11285 -1.728405,-0.002 -0.754621,-0.26573 -0.645306,-0.8491 0.251899,-1.34417 z"
           id="path1394-74"
           inkscape:connector-curvature="0" />
        <path
           style="opacity:1;fill:#f9f9f9;fill-opacity:1;stroke:none;stroke-width:0.02942517;stroke-miterlimit:4;stroke-dasharray:none;stroke-dashoffset:0;stroke-opacity:1"
           d="m 73.336721,173.96013 c 0.08738,-0.22088 0.538661,-1.13967 1.002797,-2.04179 0.464142,-0.90211 1.161092,-2.2567 1.548792,-3.01022 1.667195,-3.24027 3.044333,-5.57845 4.275426,-7.259 0.386835,-0.52807 1.343158,-1.32562 1.670793,-1.39342 0.280473,-0.0581 0.62334,0.0573 0.839933,0.28248 0.149446,0.15542 0.16098,0.18736 0.188941,0.52173 0.11197,1.33955 -0.02094,2.00854 -0.712929,3.58838 -0.379747,0.86697 -1.353047,2.40592 -2.536823,4.01114 -0.609908,0.82706 -1.580917,2.04569 -3.058382,3.83833 -0.745334,0.9043 -1.57643,1.92063 -1.84688,2.25847 -0.503114,0.62847 -0.909434,0.99574 -1.161665,1.05 -0.581853,0.12515 -0.673005,-0.67602 -0.210026,-1.84605 z"
           id="path1394-1"
           inkscape:connector-curvature="0" />
        <path
           style="opacity:1;fill:#f9f9f9;fill-opacity:1;stroke:none;stroke-width:0.02916816;stroke-miterlimit:4;stroke-dasharray:none;stroke-dashoffset:0;stroke-opacity:1"
           d="m 75.853237,176.28983 c 0.190949,-0.0308 1.069807,-0.0731 1.952957,-0.0942 0.883144,-0.0215 2.209309,-0.0525 2.947004,-0.07 3.172267,-0.0753 5.629014,0.0412 7.627132,0.36151 0.627842,0.10071 1.934408,0.61762 2.282681,0.9032 0.298145,0.24446 0.572553,0.64163 0.672225,0.97294 0.06875,0.22862 0.06443,0.2568 -0.07033,0.46074 -0.539916,0.81696 -0.991389,1.03974 -2.421671,1.195 -0.784904,0.0851 -2.466307,-0.0571 -4.382436,-0.37075 -0.98723,-0.16167 -2.511539,-0.47074 -4.801095,-0.97357 -1.155,-0.25368 -2.446754,-0.53232 -2.870552,-0.61923 -0.788389,-0.16163 -1.357254,-0.36628 -1.626356,-0.58512 -0.620817,-0.50462 -0.321189,-1.01696 0.69041,-1.1805 z"
           id="path1394-74-4"
           inkscape:connector-curvature="0" />
        <path
           style="opacity:1;fill:#f9f9f9;fill-opacity:1;stroke:none;stroke-width:0.02916816;stroke-miterlimit:4;stroke-dasharray:none;stroke-dashoffset:0;stroke-opacity:1"
           d="m 75.401457,177.40416 c 0.189537,0.0384 1.02686,0.30887 1.860699,0.60059 0.833813,0.29183 2.085855,0.73008 2.782321,0.97387 2.994986,1.04834 5.252817,2.02372 7.009574,3.02816 0.551982,0.31566 1.5923,1.26014 1.81748,1.6502 0.192774,0.3339 0.309482,0.80233 0.285902,1.1475 -0.01629,0.23818 -0.03027,0.26303 -0.228297,0.40632 -0.793341,0.57407 -1.294375,0.62331 -2.68752,0.26413 -0.7645,-0.19713 -2.287719,-0.92319 -3.9701,-1.89249 -0.866782,-0.49944 -2.184153,-1.32622 -4.149265,-2.6042 -0.99132,-0.64473 -2.101807,-1.36103 -2.467724,-1.59183 -0.680729,-0.42927 -1.140872,-0.8214 -1.315506,-1.12108 -0.402959,-0.69114 0.0581,-1.0649 1.062378,-0.86115 z"
           id="path1394-74-4-0"
           inkscape:connector-curvature="0" />
        <path
           style="opacity:1;fill:#f9f9f9;fill-opacity:1;stroke:none;stroke-width:0.02916816;stroke-miterlimit:4;stroke-dasharray:none;stroke-dashoffset:0;stroke-opacity:1"
           d="m 74.413523,178.29773 c 0.168427,0.095 0.881371,0.61076 1.584441,1.14562 0.703012,0.53496 1.758631,1.33829 2.345832,1.78516 2.525123,1.92165 4.371612,3.54635 5.732526,5.04401 0.427587,0.47063 1.125558,1.69012 1.219337,2.13064 0.08029,0.3771 0.0467,0.85868 -0.08227,1.17971 -0.08902,0.22152 -0.109985,0.24084 -0.342572,0.31601 -0.931804,0.30115 -1.423569,0.19332 -2.637808,-0.57836 -0.666316,-0.42349 -1.891027,-1.58428 -3.192045,-3.02557 -0.670285,-0.74261 -1.66811,-1.93566 -3.142768,-3.75782 -0.743892,-0.91925 -1.57904,-1.94336 -1.855844,-2.27584 -0.514978,-0.61843 -0.831607,-1.13345 -0.905207,-1.4724 -0.169938,-0.78178 0.383978,-0.99497 1.276319,-0.49116 z"
           id="path1394-74-4-0-0"
           inkscape:connector-curvature="0" />
        <path
           style="opacity:1;fill:#f9f9f9;fill-opacity:1;stroke:none;stroke-width:0.02916816;stroke-miterlimit:4;stroke-dasharray:none;stroke-dashoffset:0;stroke-opacity:1"
           d="m 73.251118,178.99801 c 0.13434,0.13909 0.670588,0.83676 1.191926,1.54991 0.521253,0.71324 1.303934,1.78425 1.739308,2.38003 1.872229,2.56198 3.178692,4.6458 4.055976,6.46938 0.275612,0.57303 0.596814,1.94093 0.561068,2.3899 -0.03059,0.38434 -0.200124,0.83634 -0.415292,1.10726 -0.148498,0.18693 -0.174102,0.19947 -0.418468,0.20519 -0.978992,0.0229 -1.419583,-0.22069 -2.363323,-1.30661 -0.517871,-0.59593 -1.360679,-2.05779 -2.19663,-3.81026 -0.430667,-0.90293 -1.046811,-2.331 -1.940571,-4.49804 -0.450841,-1.09322 -0.959244,-2.31298 -1.129733,-2.71059 -0.317224,-0.73962 -0.473826,-1.32355 -0.447706,-1.66941 0.06007,-0.79778 0.651785,-0.84415 1.363389,-0.10677 z"
           id="path1394-74-4-0-0-3"
           inkscape:connector-curvature="0" />
        <path
           style="opacity:1;fill:#f9f9f9;fill-opacity:1;stroke:none;stroke-width:0.02916816;stroke-miterlimit:4;stroke-dasharray:none;stroke-dashoffset:0;stroke-opacity:1"
           d="m 72.225676,179.38259 c 0.07516,0.17817 0.323843,1.02224 0.553035,1.87539 0.22908,0.85319 0.573031,2.13433 0.764351,2.847 0.822743,3.06466 1.29014,5.47935 1.45103,7.49656 0.0505,0.63386 -0.143022,2.02558 -0.338219,2.43147 -0.167087,0.34747 -0.48817,0.70795 -0.786536,0.88309 -0.205909,0.12078 -0.234307,0.12328 -0.464305,0.0405 -0.921418,-0.33158 -1.24457,-0.71763 -1.733376,-2.07074 -0.268216,-0.74255 -0.52735,-2.40995 -0.675325,-4.34594 -0.0762,-0.99748 -0.136094,-2.55164 -0.188541,-4.89516 -0.02642,-1.18224 -0.06091,-2.50326 -0.0766,-2.93561 -0.02927,-0.80424 0.03517,-1.40536 0.184223,-1.71855 0.343631,-0.72248 0.912274,-0.55242 1.310203,0.39191 z"
           id="path1394-74-4-0-0-3-5"
           inkscape:connector-curvature="0" />
        <path
           style="opacity:1;fill:#f9f9f9;fill-opacity:1;stroke:none;stroke-width:0.02916816;stroke-miterlimit:4;stroke-dasharray:none;stroke-dashoffset:0;stroke-opacity:1"
           d="m 71.20789,179.09673 c 0.0054,0.1933 -0.06889,1.0701 -0.164677,1.94829 -0.0959,0.87818 -0.239941,2.19685 -0.320078,2.93039 -0.344589,3.15441 -0.78464,5.57423 -1.366198,7.51248 -0.182793,0.60903 -0.867819,1.83584 -1.196917,2.14332 -0.281716,0.26323 -0.711665,0.48274 -1.053232,0.53777 -0.235693,0.0379 -0.263023,0.0304 -0.44739,-0.13064 -0.738459,-0.64314 -0.899623,-1.12009 -0.864482,-2.55835 0.01931,-0.78928 0.382459,-2.43715 0.9466,-4.29503 0.290702,-0.95722 0.798467,-2.42731 1.599416,-4.63033 0.40409,-1.11136 0.850987,-2.35496 0.993148,-2.76358 0.264363,-0.7601 0.542399,-1.29694 0.794878,-1.53476 0.582233,-0.5487 1.050503,-0.184 1.078905,0.84035 z"
           id="path1394-74-4-0-0-3-5-3"
           inkscape:connector-curvature="0" />
        <path
           style="opacity:1;fill:#f9f9f9;fill-opacity:1;stroke:none;stroke-width:0.02916816;stroke-miterlimit:4;stroke-dasharray:none;stroke-dashoffset:0;stroke-opacity:1"
           d="m 70.17562,178.57762 c -0.06359,0.18262 -0.444358,0.9759 -0.845722,1.76286 -0.401464,0.78692 -1.004336,1.96851 -1.339708,2.6258 -1.442165,2.82652 -2.712742,4.93242 -3.944616,6.53789 -0.387129,0.50443 -1.46312,1.40808 -1.87995,1.57867 -0.356825,0.14605 -0.836699,0.1986 -1.17555,0.12876 -0.233792,-0.0483 -0.256681,-0.0649 -0.371851,-0.28099 -0.461984,-0.86343 -0.443297,-1.36652 0.100234,-2.69859 0.298299,-0.731 1.222892,-2.14256 2.409946,-3.67907 0.611639,-0.79163 1.608299,-1.98564 3.13928,-3.76071 0.772368,-0.89547 1.631707,-1.89936 1.909693,-2.23088 0.517025,-0.6167 0.967558,-1.01984 1.288028,-1.15252 0.739121,-0.30622 1.047385,0.20099 0.710223,1.16868 z"
           id="path1394-74-4-0-0-3-5-3-2"
           inkscape:connector-curvature="0" />
        <path
           style="opacity:1;fill:#f9f9f9;fill-opacity:1;stroke:none;stroke-width:0.02916816;stroke-miterlimit:4;stroke-dasharray:none;stroke-dashoffset:0;stroke-opacity:1"
           d="m 69.764513,178.56475 c -0.140445,0.13293 -0.843359,0.66226 -1.561654,1.17651 -0.718367,0.51417 -1.797073,1.28618 -2.39714,1.71563 -2.580422,1.84674 -4.677097,3.13248 -6.509277,3.99164 -0.575733,0.26992 -1.946753,0.57755 -2.395343,0.53736 -0.384023,-0.0344 -0.834311,-0.20841 -1.103092,-0.42625 -0.185395,-0.1504 -0.198087,-0.17567 -0.200987,-0.42051 -0.01319,-0.97917 0.234755,-1.41732 1.329966,-2.35025 0.601043,-0.51194 2.071188,-1.34022 3.831857,-2.15876 0.907167,-0.4217 2.341265,-1.02365 4.517044,-1.89587 1.097642,-0.44 2.322374,-0.93628 2.721676,-1.10283 0.742709,-0.30986 1.328163,-0.46068 1.673752,-0.43113 0.797153,0.068 0.837647,0.66013 0.09326,1.36438 z"
           id="path1394-74-4-0-0-3-5-3-2-6"
           inkscape:connector-curvature="0" />
        <path
           style="opacity:1;fill:#f9f9f9;fill-opacity:1;stroke:none;stroke-width:0.02916816;stroke-miterlimit:4;stroke-dasharray:none;stroke-dashoffset:0;stroke-opacity:1"
           d="m 68.96391,177.90722 c -0.180675,0.069 -1.03281,0.28834 -1.893371,0.48793 -0.860595,0.19949 -2.152846,0.49897 -2.871701,0.66557 -3.09125,0.7164 -5.52064,1.10011 -7.542209,1.19124 -0.635229,0.0284 -2.019429,-0.2129 -2.418333,-0.422 -0.341495,-0.17898 -0.690671,-0.51234 -0.855406,-0.81657 -0.113571,-0.20997 -0.115607,-0.23818 -0.02446,-0.46543 0.363202,-0.90941 0.760172,-1.21904 2.129357,-1.66081 0.751382,-0.24242 2.426736,-0.4438 4.366687,-0.52484 0.999503,-0.0421 2.554819,-0.0479 4.898737,-0.0193 1.18246,0.0144 2.503876,0.0256 2.936519,0.0248 0.804755,-0.001 1.403296,0.0837 1.711151,0.24348 0.710191,0.36837 0.520576,0.9308 -0.436924,1.29588 z"
           id="path1394-74-4-0-0-3-5-3-2-6-1"
           inkscape:connector-curvature="0" />
        <path
           style="opacity:1;fill:#f9f9f9;fill-opacity:1;stroke:none;stroke-width:0.02916816;stroke-miterlimit:4;stroke-dasharray:none;stroke-dashoffset:0;stroke-opacity:1"
           d="m 68.80023,176.60336 c -0.192992,0.0123 -1.071884,-0.0299 -1.952984,-0.0937 -0.881103,-0.0639 -2.204125,-0.15984 -2.940099,-0.21323 -3.164864,-0.22957 -5.599091,-0.58129 -7.557227,-1.09193 -0.61522,-0.16071 -1.8662,-0.80045 -2.185449,-1.11813 -0.273311,-0.27195 -0.508316,-0.69364 -0.57574,-1.03297 -0.04641,-0.23418 -0.04002,-0.26172 0.114238,-0.45187 0.61584,-0.76136 1.086608,-0.93978 2.525195,-0.957 0.789465,-0.009 2.44946,0.29353 4.326642,0.78968 0.967258,0.25532 2.454749,0.70964 4.685449,1.42989 1.125337,0.36336 2.384374,0.76472 2.797898,0.89193 0.769206,0.23653 1.315815,0.49484 1.562664,0.73849 0.569531,0.56189 0.222103,1.04312 -0.800529,1.10878 z"
           id="path1394-74-4-0-0-3-5-3-2-6-1-9"
           inkscape:connector-curvature="0" />
        <path
           style="opacity:1;fill:#f9f9f9;fill-opacity:1;stroke:none;stroke-width:0.02916816;stroke-miterlimit:4;stroke-dasharray:none;stroke-dashoffset:0;stroke-opacity:1"
           d="m 68.976147,175.5459 c -0.18732,-0.048 -1.00957,-0.36138 -1.827281,-0.69567 -0.817672,-0.33442 -2.045445,-0.83658 -2.728429,-1.11594 -2.936999,-1.20129 -5.141564,-2.29173 -6.844221,-3.38536 -0.534868,-0.34385 -1.525249,-1.34053 -1.730025,-1.74166 -0.175319,-0.34341 -0.267715,-0.81722 -0.2264,-1.16071 0.02863,-0.23702 0.04325,-0.26121 0.248945,-0.39403 0.821876,-0.53242 1.324777,-0.55578 2.697552,-0.12524 0.753318,0.23633 2.237119,1.03985 3.867325,2.09456 0.840105,0.54315 2.112894,1.43704 4.009524,2.81456 0.956802,0.69493 2.02889,1.46753 2.382445,1.71689 0.657682,0.46378 1.097015,0.87909 1.255971,1.18737 0.366827,0.71099 -0.112898,1.06051 -1.105341,0.80527 z"
           id="path1394-74-4-0-0-3-5-3-2-6-1-9-5"
           inkscape:connector-curvature="0"
           inkscape:transform-center-x="-0.43799602"
           inkscape:transform-center-y="4.1600951" />
        <path
           style="opacity:1;fill:#f9f9f9;fill-opacity:1;stroke:none;stroke-width:0.02916816;stroke-miterlimit:4;stroke-dasharray:none;stroke-dashoffset:0;stroke-opacity:1"
           d="m 69.533657,174.33128 c -0.164101,-0.10235 -0.853557,-0.64906 -1.532365,-1.21442 -0.678728,-0.56547 -1.697868,-1.41455 -2.264789,-1.88689 -2.437907,-2.03117 -4.210922,-3.73575 -5.50444,-5.29199 -0.406253,-0.48916 -1.049906,-1.73814 -1.124157,-2.18236 -0.06358,-0.38028 -0.0088,-0.8599 0.134221,-1.17493 0.09877,-0.21734 0.120025,-0.23599 0.356194,-0.30059 0.944184,-0.25974 1.430711,-0.13034 2.609717,0.69415 0.646956,0.45254 1.819305,1.66617 3.055488,3.16345 0.637166,0.77123 1.581074,2.00739 2.973909,3.8928 0.702645,0.95116 1.491786,2.01112 1.753668,2.35551 0.487174,0.64054 0.780786,1.16902 0.83936,1.51089 0.135298,0.78852 -0.427499,0.97707 -1.296743,0.43437 z"
           id="path1394-74-4-0-0-3-5-3-2-6-1-9-0"
           inkscape:connector-curvature="0" />
        <path
           style="opacity:1;fill:#f9f9f9;fill-opacity:1;stroke:none;stroke-width:0.02916816;stroke-miterlimit:4;stroke-dasharray:none;stroke-dashoffset:0;stroke-opacity:1"
           d="m 70.145252,173.53823 c -0.117076,-0.15394 -0.567527,-0.90981 -1.001402,-1.67933 -0.433764,-0.76958 -1.085072,-1.92518 -1.447374,-2.56802 -1.557988,-2.76437 -2.610347,-4.98735 -3.267107,-6.90145 -0.206128,-0.60152 -0.364438,-1.99765 -0.276145,-2.43929 0.07557,-0.37808 0.297086,-0.807 0.542602,-1.05074 0.169498,-0.16812 0.195986,-0.17801 0.439707,-0.15456 0.974894,0.0924 1.383784,0.38608 2.193277,1.57544 0.444154,0.65274 1.109269,2.20352 1.733361,4.04213 0.321857,0.9472 0.765418,2.43794 1.39816,4.69502 0.319192,1.13866 0.680622,2.40972 0.80318,2.82465 0.228032,0.77178 0.314895,1.37007 0.248283,1.71047 -0.153448,0.78518 -0.746528,0.76164 -1.366484,-0.0543 z"
           id="path1394-74-4-0-0-3-5-3-2-6-1-9-0-5"
           inkscape:connector-curvature="0" />
        <g
           id="g1392"
           transform="matrix(0.5024135,0,0,0.5024135,5.1628311,102.46155)">
          <circle
             r="11.443229"
             cy="147.97345"
             cx="132.62239"
             id="path903"
             style="fill:#ffd42a;fill-opacity:1;stroke:none;stroke-width:0.16500001;stroke-miterlimit:4;stroke-dasharray:none;stroke-dashoffset:0;stroke-opacity:1" />
          <circle
             transform="matrix(0.41362908,0,0,0.41362908,77.722516,86.767351)"
             r="11.443229"
             cy="147.9621"
             cx="132.6498"
             id="path903-7"
             style="opacity:1;fill:#d4aa00;fill-opacity:1;stroke:none;stroke-width:0.16500001;stroke-miterlimit:4;stroke-dasharray:none;stroke-dashoffset:0;stroke-opacity:1;filter:url(#filter1386)" />
        </g>
      </g>
    </g>
    <text
       xml:space="preserve"
       style="font-style:normal;font-weight:normal;font-size:11.23668671px;line-height:125%;font-family:Sans;letter-spacing:0px;word-spacing:0px;fill:#000000;fill-opacity:1;stroke:none;stroke-width:0.28091717px;stroke-linecap:butt;stroke-linejoin:miter;stroke-opacity:1"
       id="text41"
       x="-1.235081"
       y="-1.8308408"
       transform="matrix(1.1292253,0.16846782,-0.16512104,1.1067921,-0.11543519,-9.8403798)"><textPath
         xlink:href="#path819"
         id="textPath83"
         style="stroke-width:0.28091717px"><tspan
   style="font-style:normal;font-variant:normal;font-weight:normal;font-stretch:normal;font-size:5.99289989px;font-family:'Imprint MT Shadow';-inkscape-font-specification:'Imprint MT Shadow, Normal';font-variant-ligatures:normal;font-variant-caps:normal;font-variant-numeric:normal;font-feature-settings:normal;text-align:start;writing-mode:lr-tb;text-anchor:start;stroke-width:0.28091717px"
   id="tspan39">                                Irrigation automatique</tspan></textPath></text>
    <ellipse
       style="fill:#808080;fill-opacity:1;stroke-width:0.26458332"
       id="path43"
       cx="-57.840832"
       cy="25.525948"
       rx="28.775085"
       ry="17.14879" />
  </g>
</svg>
